449.1324205011
784.6038863153
813.5668331212
842.5012625859
755.4920161643
856.5626297152
828.5604322528
754.4874007923
684.2727754274
861.5255387284
818.4944859301
917.5634033399
841.4920884381
824.5747060362
772.5279659316
831.5397921824
829.5628225443
713.4051630767
840.5718279972
825.5774689507
748.4071430283
796.5394188572
914.5820514602
726.4526427575
828.5360231455
808.1718224172
764.426648426
582.4156645707
810.5461929185
868.4217285235
356.2867883482
685.3198927546
776.4449210864
830.5771891585
810.5476875418
318.2677164403
844.5122461102
388.1581424044
841.5759579677
778.3331670389
690.4259554633
606.0998277992
662.3998240025
692.4210089179
762.4431003876
808.5294118709
811.5525398955
794.5215668302
714.4059196966
608.0676843736
876.5173035374
903.5015551103
700.4263766296
788.5207830525
690.4160148236
992.5348071075
989.5113067983
814.580570522
674.4021731084
623.0740795452
439.0436797137
902.5179235936
440.0382788743
919.4917056691
558.3771911081
438.0411897178
984.6311006361
407.6335885263
316.2880318101
842.541609172
513.9527406938
678.3488781329
902.4874306348
835.4918957536
638.3515575852
910.4888793342
756.4516224046
779.3388254985
730.3988434267
857.5623355517
422.1891946517
686.4670070482
748.4419680974
920.5347692733
856.56565941
554.1817909321
460.0131072861
979.5643942193
813.5720085973
650.36128561
598.408870354
548.2227163328
810.5219231595
668.4565446293
842.5788559878
790.367764796
795.5265868877
874.480746071
830.5708491518
866.5437482138
700.4236371921
901.480348656
830.5456995978
804.4647505006
333.2455548342
964.570874285
213.9969685931
758.471224694
804.498606298
788.5218537485
736.3831573029
366.3466921814
759.5864661084
856.5666117863
662.4980059816
243.9823688441
792.5184535908
843.5344164146
734.3763009804
958.6125888268
852.4968483909
728.4626102696
449.0031183107
870.4953132128
395.0091368134
676.418499714
578.3745832475
650.4584662516
724.4361328385
836.4793816562
776.4752840088
671.4213869344
570.3387410689
663.4209760268
578.3727247358
757.4694584999
940.2710768785
744.4989707951
634.4651369351
823.3930859282
777.4753075351
806.4764010969
672.4188415553
811.5228444257
941.2738452368
564.3816964851
586.3337512673
804.5135575873
788.5113225399
578.372633358
310.1315031313
816.5849899967
638.4148619247
769.4169558396
438.9929703979
825.4942542042
976.2109880812
391.0611637356
766.4716902181
238.0338869116
756.5005732089
305.2713818178
781.4790010261
838.6591277783
782.4781883056
780.5437491923
609.5265613804
937.619809192
664.4281357751
782.5830154631
776.4745217557
758.5824116846
937.513570603
882.5246486238
759.4448250477
887.5068786479
326.0953848939
833.4895854377
861.5244222377
828.5309331129
402.3312107793
454.130313922
938.5189336623
834.4919440748
682.272800188
826.5316280288
777.4509416765
828.5166482641
760.4495461333
904.5023932793
470.1533036147
374.2995839311
791.4402493873
747.403838572
922.5191073629
748.4079614981
862.5294762314
845.5254778075
817.4898480876
964.2361399411
921.5152523339
759.4801601499
938.5171664656
747.4039179425
385.1180139329
742.4494463228
937.514102914
689.4000269483
861.5259452817
486.0366568392
816.4788410184
342.1073744476
784.6020414498
690.4120092277
787.5141134993
846.5290742142
742.4483343524
790.4742856833
692.4143910142
731.4071786214
990.5922145737
923.5199156526
732.4101718536
800.484319716
712.3894445832
867.4724188522
788.5197123566
760.487122385
859.4665223692
282.0864000275
477.9906012043
440.2380541691
872.5647903551
815.4697102568
758.4306986874
624.0756476871
410.1770895024
786.5104261225
774.4291677731
761.493422294
787.5140355209
791.4816503675
762.3864651027
802.163332745
264.0709973879
662.324853082
667.456421579
475.9925241918
684.3991870803
689.4251908282
748.42039088
776.4413658447
349.282902141
784.6019832839
886.5007132719
809.5331027781
656.0685572464
919.5011637976
777.4867885196
199.9805837938
851.5103687048
804.5053760491
753.2878547754
825.5825319494
784.601679516
597.3714517822
920.5047651971
784.6015103761
497.977017639
919.5298948878
663.335217248
784.6005946339
888.509910242
747.426491597
824.527818703
598.3736332569
422.1940975892
851.4312737116
640.3665496085
704.4541852074
864.520988068
758.5816822459
684.4518947932
310.0938245411
328.1053277008
759.5871097641
640.3429678627
808.4847255242
744.4578398147
864.4889267795
746.4522654491
752.4704387307
887.5075404933
784.6010704694
502.0352646698
704.5126146611
726.4785746404
924.5166937398
758.5816035222
958.7038027203
838.5554135281
760.5925081427
759.5868150528
613.3726012764
727.4779730164
758.5821280285
758.5820171939
852.4338546758
310.0939106469
640.4252441558
784.5998962484
782.5834255629
974.6130946981
782.583895957
640.0790358204
759.5862338731
783.5885771684
887.6364006578
759.5863114933
722.533841538
614.3755995613
759.5866433213
782.5843649564
758.5820970028
755.5702545524
624.4027761389
759.5861565909
585.3312568794
759.5871063893
847.7052311738
783.5883117416
736.6314195925
782.5849334798
759.5869224943
666.4409778196
585.3322224834
758.581868844
758.5825886269
760.5924162082
328.1054004513
356.0663393817
760.5909825717
759.5860556152
782.5836963616
611.5398042162
662.3256136879
782.5850952152
615.4913280652
578.3728161136
610.5365600912
678.4957339843
618.2438390472
825.493819563
736.4418077979
825.7220302932
616.494502164
831.5960214745
740.5213314553
615.4903423162
638.3265108487
565.5575940896
616.4951136135
608.5212275356
615.4905547285
921.71150788
610.535576873
615.4914006265
364.2924032018
786.6191382788
294.1200879613
758.5825395428
783.5906884439
922.7165731112
788.5200727611
248.0763747619
782.5844179006
314.0885115328
617.496841072
616.4951031967
758.5816676671
258.0201122728
790.1793396345
593.5071396121
266.0875697555
816.4729373458
783.4917791497
615.4913870205
615.4904183264
782.5848195701
615.4914620155
620.2832819774
334.2386736671
230.0083099451
615.491555205
615.4915500575
610.5360333945
783.5903274808
758.5820641496
786.6191733859
610.536272221
792.5062958422
760.5907612178
945.8104136991
565.5575030491
565.5576490495
769.4990056473
616.4949402493
782.5842811276
615.4912204542
764.5423652113
500.2501919218
565.557525587
927.666559927
789.5214556569
610.5354823239
801.4928662646
793.5776116082
941.7943849252
943.7991169404
724.4563308127
872.6722167624
985.8433083042
786.6187419701
615.4913908318
610.5354209753
770.5011120069
676.5308953145
610.5362768965
575.4941046818
610.5355936181
704.4858749962
611.5392551018
946.8143860916
616.4948798973
942.7992693385
575.4943717411
575.494169243
565.5580787017
764.5425234852
970.7657487759
942.7991774003
943.8007601977
973.8452401634
575.4948755153
610.5359294237
260.0766406021
610.536408283
974.848690421
610.536007
611.539616281
616.4954278018
792.5763944868
610.535850123
784.5989447887
