757.5714716132
798.5536286852
860.669603604
355.1212957333
316.2879387023
356.2136217425
507.2758852203
416.0572609335
426.1890751029
548.2212526266
356.1251981106
661.3864570828
776.6325669533
700.4181602235
433.0856188141
433.2266354437
896.5154877299
436.086409002
797.592264519
726.2901979355
435.0834616549
213.9971639893
675.3855729008
358.2210327751
677.3724277557
570.3489596961
791.5563421811
318.268103432
630.4039558481
738.3307953767
710.2871227445
842.4647082667
624.4458900651
699.4145581683
508.1383219798
736.4427030413
542.2953514357
428.3427393532
798.6023366475
842.3350552293
438.0411787122
763.6167433429
853.1657287178
439.0434739084
440.0386778427
412.2822761386
788.5654615625
943.6221848098
781.4595021801
441.0416565226
374.2998862619
677.387650229
902.5005026038
780.4640133232
795.5937491898
854.4922110347
859.6658061294
897.5682911402
780.5025901057
854.4478165642
808.5382894373
694.4587265151
756.5678712014
854.5585385034
706.4111716765
856.3958348974
798.6008659444
780.5136107313
764.4562184069
781.5447607744
781.5441733944
780.5415408074
730.4311557509
758.5840402075
573.328749443
361.1690269879
554.1808386452
362.1736780484
441.1134689705
224.075685475
652.1489514477
529.2959003816
584.0490535868
939.514555562
442.1167930528
712.2847213783
713.405446119
900.5346849925
937.5129925487
632.4233168942
582.0514743045
712.3934866005
552.1589136237
932.5600471832
833.4439970872
994.6139479303
835.4413947927
714.4090496776
472.0694202491
444.0430999716
782.5830487153
836.4389910024
776.4491769429
676.5255406103
922.5210088255
921.5163918159
834.4445787037
666.2408200227
690.4004410161
734.3751421592
690.4076667002
990.5906843157
937.5138034529
917.4973302296
898.5358209933
758.4341401152
779.5003166836
833.4433928179
747.403611187
978.5484483511
796.3834168698
846.5238897267
834.4431744408
757.57028481
199.9804895014
782.5848971513
782.5850595096
825.4666883627
782.5844140954
744.4614895728
532.4017833417
913.4869530358
748.4083321356
644.4607427324
742.4494772527
391.0571099848
695.4372332339
870.497290912
901.515370963
757.5703089815
894.5736025675
397.356451066
440.2377673239
692.4209947761
826.5146973468
756.5672905818
727.4809822865
726.4790790867
760.4496996108
756.566094079
757.5701878382
804.5013717796
788.5296879702
776.4870053985
781.5717551321
726.4521061299
830.5381881758
758.2374084322
780.568393004
804.5084475763
782.5847701282
862.5292736828
764.4043358998
756.5662211225
766.3698614105
615.4883464406
894.5741230368
920.5043865527
971.7372114278
908.529538488
908.5196375298
782.5847821611
757.5696575068
870.5002041217
758.2367638053
782.584105376
758.4748817533
852.4487022839
971.7274881704
774.4231068871
908.5304924133
732.4093751447
780.5667672996
756.5657177017
398.3587101416
756.5653296926
757.5698680489
757.5683686778
757.5698179542
736.4990558604
782.5843325599
846.4201215475
777.4911287078
266.0875012234
782.5847875757
856.5728616846
660.4270805395
724.456253977
980.5694474698
680.48374881
944.5351611786
615.4891752776
958.6201929046
613.4754841927
788.5215939569
676.4196007863
805.5304258196
756.5660810232
294.1197798236
769.4984897869
958.6127336667
974.5932667712
781.5705325092
781.5691804721
780.5646510404
942.5258507876
782.58403086
780.5652714697
757.5690865148
782.5846776659
757.5696743265
706.4086936006
758.2361623547
797.5336143289
757.5657470263
960.6162726609
760.2351659278
759.2371725527
690.4166868872
782.5833218288
821.4577949178
780.5422044862
783.4811821588
764.542993408
613.4737284417
758.5813325935
784.4839683511
613.4761304734
757.5693092852
760.5969370043
758.5799767911
792.5770092868
